module gitlab.com/veroskevin/miku-backend/graphql

go 1.12

require (
	github.com/dgrijalva/jwt-go v3.2.0+incompatible
	github.com/golang/protobuf v1.3.2
	github.com/graph-gophers/graphql-go v0.0.0-20190724201507-010347b5f9e6
	github.com/kr/pretty v0.1.0 // indirect
	github.com/labstack/echo v3.3.10+incompatible
	github.com/labstack/gommon v0.2.9 // indirect
	github.com/satori/go.uuid v1.2.0
	google.golang.org/grpc v1.22.1
	gopkg.in/check.v1 v1.0.0-20180628173108-788fd7840127 // indirect
)
