module gitlab.com/veroskevin/miku-backend/user

go 1.12

require (
	github.com/DATA-DOG/go-sqlmock v1.3.3
	github.com/go-redis/redis v6.15.2+incompatible
	github.com/golang/mock v1.3.1
	github.com/golang/protobuf v1.3.2
	github.com/kr/pretty v0.1.0 // indirect
	github.com/lib/pq v1.2.0
	github.com/onsi/ginkgo v1.8.0 // indirect
	github.com/onsi/gomega v1.5.0 // indirect
	github.com/satori/go.uuid v1.2.0
	github.com/stretchr/testify v1.3.0
	google.golang.org/grpc v1.22.1
	gopkg.in/check.v1 v1.0.0-20180628173108-788fd7840127 // indirect
)
